%!PS-Adobe-3.0
%%Title: Nick.pl
%%For: scott
%%Creator: VIM - Vi IMproved 8.0 (2016 Sep 12)
%%CreationDate: Sun Jan 29 15:56:07 2017
%%DocumentData: Clean8Bit
%%Orientation: Portrait
%%Pages: (atend)
%%PageOrder: Ascend
%%BoundingBox: 59 49 564 800
%%DocumentMedia: A4 595 842 0 () ()
%%DocumentNeededResources: font Courier
%%+ font Courier-Bold
%%+ font Courier-Oblique
%%+ font Courier-BoldOblique
%%DocumentSuppliedResources: procset VIM-Prolog 1.4 1
%%+ encoding VIM-latin1 1.0 0
%%Requirements: duplex collate
%%EndComments
%%BeginDefaults
%%PageResources: font Courier
%%+ font Courier-Bold
%%+ font Courier-Oblique
%%+ font Courier-BoldOblique
%%PageMedia: A4
%%EndDefaults
%%BeginProlog
%%BeginResource: procset VIM-Prolog
%%BeginDocument: /usr/share/vim/vim80/print/prolog.ps
%!PS-Adobe-3.0 Resource-ProcSet
%%Title: VIM-Prolog
%%Version: 1.4 1
%%EndComments
% Editing of this file is NOT RECOMMENDED.  You run a very good risk of causing
% all PostScript printing from VIM failing if you do.  PostScript is not called
% a write-only language for nothing!
/packedarray where not{userdict begin/setpacking/pop load def/currentpacking
false def end}{pop}ifelse/CP currentpacking def true setpacking
/bd{bind def}bind def/ld{load def}bd/ed{exch def}bd/d/def ld
/db{dict begin}bd/cde{currentdict end}bd
/T true d/F false d
/SO null d/sv{/SO save d}bd/re{SO restore}bd
/L2 systemdict/languagelevel 2 copy known{get exec}{pop pop 1}ifelse 2 ge d
/m/moveto ld/s/show ld /ms{m s}bd /g/setgray ld/r/setrgbcolor ld/sp{showpage}bd
/gs/gsave ld/gr/grestore ld/cp/currentpoint ld
/ul{gs UW setlinewidth cp UO add 2 copy newpath m 3 1 roll add exch lineto
stroke gr}bd
/bg{gs r cp BO add 4 -2 roll rectfill gr}bd
/sl{90 rotate 0 exch translate}bd
L2{
/sspd{mark exch{setpagedevice}stopped cleartomark}bd
/nc{1 db/NumCopies ed cde sspd}bd
/sps{3 db/Orientation ed[3 1 roll]/PageSize ed/ImagingBBox null d cde sspd}bd
/dt{2 db/Tumble ed/Duplex ed cde sspd}bd
/c{1 db/Collate ed cde sspd}bd
}{
/nc{/#copies ed}bd
/sps{statusdict/setpage get exec}bd
/dt{statusdict/settumble 2 copy known{get exec}{pop pop pop}ifelse
statusdict/setduplexmode 2 copy known{get exec}{pop pop pop}ifelse}bd
/c{pop}bd
}ifelse
/ffs{findfont exch scalefont d}bd/sf{setfont}bd
/ref{1 db findfont dup maxlength dict/NFD ed{exch dup/FID ne{exch NFD 3 1 roll
put}{pop pop}ifelse}forall/Encoding findresource dup length 256 eq{NFD/Encoding
3 -1 roll put}{pop}ifelse NFD dup/FontType get 3 ne{/CharStrings}{/CharProcs}
ifelse 2 copy known{2 copy get dup maxlength dict copy[/questiondown/space]{2
copy known{2 copy get 2 index/.notdef 3 -1 roll put pop exit}if pop}forall put
}{pop pop}ifelse dup NFD/FontName 3 -1 roll put NFD definefont pop end}bd
CP setpacking
(\004)cvn{}bd
% vim:ff=unix:
%%EOF
%%EndDocument
%%EndResource
%%BeginResource: encoding VIM-latin1
%%BeginDocument: /usr/share/vim/vim80/print/latin1.ps
%!PS-Adobe-3.0 Resource-Encoding
%%Title: VIM-latin1
%%Version: 1.0 0
%%EndComments
/VIM-latin1[
/.notdef /.notdef /.notdef /.notdef /.notdef /.notdef /.notdef /.notdef
/.notdef /.notdef /.notdef /.notdef /.notdef /.notdef /.notdef /.notdef
/.notdef /.notdef /.notdef /.notdef /.notdef /.notdef /.notdef /.notdef
/.notdef /.notdef /.notdef /.notdef /.notdef /.notdef /.notdef /.notdef
/space /exclam /quotedbl /numbersign /dollar /percent /ampersand /quotesingle
/parenleft /parenright /asterisk /plus /comma /minus /period /slash
/zero /one /two /three /four /five /six /seven
/eight /nine /colon /semicolon /less /equal /greater /question
/at /A /B /C /D /E /F /G
/H /I /J /K /L /M /N /O
/P /Q /R /S /T /U /V /W
/X /Y /Z /bracketleft /backslash /bracketright /asciicircum /underscore
/grave /a /b /c /d /e /f /g
/h /i /j /k /l /m /n /o
/p /q /r /s /t /u /v /w
/x /y /z /braceleft /bar /braceright /asciitilde /.notdef
/.notdef /.notdef /.notdef /.notdef /.notdef /.notdef /.notdef /.notdef
/.notdef /.notdef /.notdef /.notdef /.notdef /.notdef /.notdef /.notdef
/.notdef /.notdef /.notdef /.notdef /.notdef /.notdef /.notdef /.notdef
/.notdef /.notdef /.notdef /.notdef /.notdef /.notdef /.notdef /.notdef
/space /exclamdown /cent /sterling /currency /yen /brokenbar /section
/dieresis /copyright /ordfeminine /guillemotleft /logicalnot /hyphen /registered /macron
/degree /plusminus /twosuperior /threesuperior /acute /mu /paragraph /periodcentered
/cedilla /onesuperior /ordmasculine /guillemotright /onequarter /onehalf /threequarters /questiondown
/Agrave /Aacute /Acircumflex /Atilde /Adieresis /Aring /AE /Ccedilla
/Egrave /Eacute /Ecircumflex /Edieresis /Igrave /Iacute /Icircumflex /Idieresis
/Eth /Ntilde /Ograve /Oacute /Ocircumflex /Otilde /Odieresis /multiply
/Oslash /Ugrave /Uacute /Ucircumflex /Udieresis /Yacute /Thorn /germandbls
/agrave /aacute /acircumflex /atilde /adieresis /aring /ae /ccedilla
/egrave /eacute /ecircumflex /edieresis /igrave /iacute /icircumflex /idieresis
/eth /ntilde /ograve /oacute /ocircumflex /otilde /odieresis /divide
/oslash /ugrave /uacute /ucircumflex /udieresis /yacute /thorn /ydieresis]
/Encoding defineresource pop
% vim:ff=unix:
%%EOF
%%EndDocument
%%EndResource
%%EndProlog
%%BeginSetup
595 842 0 sps
1 nc
T F dt
T c
%%IncludeResource: font Courier
/_F0 /VIM-latin1 /Courier ref
/F0 10 /_F0 ffs
%%IncludeResource: font Courier-Bold
/_F1 /VIM-latin1 /Courier-Bold ref
/F1 10 /_F1 ffs
%%IncludeResource: font Courier-Oblique
/_F2 /VIM-latin1 /Courier-Oblique ref
/F2 10 /_F2 ffs
%%IncludeResource: font Courier-BoldOblique
/_F3 /VIM-latin1 /Courier-BoldOblique ref
/F3 10 /_F3 ffs
/UO -1 d
/UW 0.5 d
/BO -2.5 d
%%EndSetup
%%Page: 1 1
%%BeginPageSetup
sv
0 g
F0 sf
%%EndPageSetup
F1 sf
(Nick.pl                                                                       Page 1)59.5 792.4 ms
F0 sf
(#!/usr/bin/env perl )59.5 772.4 ms
(# heads ...)59.5 752.4 ms
(use strict;)59.5 742.4 ms
(use warnings;)59.5 732.4 ms
(use feature qw\(say\);)59.5 722.4 ms
(use POSIX;                      # floor function...)59.5 712.4 ms
(use List::MoreUtils 'pairwise'; # pairwise addition...)59.5 702.4 ms
(use Data::Dumper;               # show data hierarchy...)59.5 692.4 ms
(use List::Util qw\(sum reduce\);)59.5 682.4 ms
(use List::Flatten;)59.5 672.4 ms
(use File::Slurp;                # enable file slurp during input...)59.5 662.4 ms
(use Math::MatrixReal;)59.5 652.4 ms
(use Math::Trig;)59.5 642.4 ms
(use Ref::Util qw\(is_arrayref\);                  # test if object is an array referen)59.5 632.4 ms
(ce...)59.5 622.4 ms
(#---------------)59.5 602.4 ms
(# [introduction])59.5 592.4 ms
(#---------------)59.5 582.4 ms
(#==========)59.5 562.4 ms
(# main code)59.5 552.4 ms
(#==========)59.5 542.4 ms
(#~~~~~~~~~~~~~~~~~~~~~~~~~~~~~~~~~~~~~~~~~~)59.5 522.4 ms
(# Generate coordinates for two cylinders...)59.5 512.4 ms
(#~~~~~~~~~~~~~~~~~~~~~~~~~~~~~~~~~~~~~~~~~~)59.5 502.4 ms
(# set parameters up...)59.5 482.4 ms
(my %separations = \()59.5 462.4 ms
(  in => 8.8,      # nm)59.5 452.4 ms
(  out => 5.4,     # nm)59.5 442.4 ms
(\);)59.5 432.4 ms
(my %idls = \(      # inverse Debye length...)59.5 422.4 ms
(  in => 1.38042,  # nm^-1 ... [check])59.5 412.4 ms
(  out => 0.52464, # nm^-1 ... [check])59.5 402.4 ms
(\);)59.5 392.4 ms
(my $ligand_size = 3.60;  # nm)59.5 382.4 ms
(# program control...)59.5 362.4 ms
(my $experiment = "in";)59.5 352.4 ms
(# my $experiment = "out";)59.5 342.4 ms
(my $file_export = "interaction_".$experiment."-".$ligand_size."nm.txt";)59.5 332.4 ms
(my $separation_shell = $separations{$experiment} - 2*$ligand_size;)59.5 312.4 ms
(my $separation = $separations{$experiment};)59.5 302.4 ms
(my $radius = 17.0/2.0;  # nm)59.5 292.4 ms
(my $height = 22.0;      # nm)59.5 282.4 ms
(my $grid_size = 1.4;    # nm)59.5 272.4 ms
(my %center = \()59.5 262.4 ms
(  left  => [0.0, -1*$separation/2.0-$radius, 0.0],)59.5 252.4 ms
(  right => [0.0,  1*$separation/2.0+$radius, 0.0],)59.5 242.4 ms
(\);)59.5 232.4 ms
(my $idl = $idls{$experiment};)59.5 222.4 ms
(my $hmk = 3e-19; # Hamaker constant => J)59.5 212.4 ms
(my $num_rand_shell = 1000;)59.5 202.4 ms
(# generate coordinates...)59.5 182.4 ms
(my $cylinder_left = [];)59.5 162.4 ms
(my $cylinder_right = [];)59.5 152.4 ms
(my $shell_left = [];)59.5 142.4 ms
(my $shell_right = [];)59.5 132.4 ms
(shell_coordinates_gen\( {)59.5 112.4 ms
(    radius => $radius + $ligand_size,)59.5 102.4 ms
(    height => $height,)59.5 92.4 ms
(    separation => $separation_shell,)59.5 82.4 ms
(    center => $center{left},)59.5 72.4 ms
(    points => $num_rand_shell,)59.5 62.4 ms
(    shell => $shell_left,)59.5 52.4 ms
re sp
%%PageTrailer
%%Page: 2 2
%%BeginPageSetup
sv
0 g
F0 sf
%%EndPageSetup
F1 sf
(Nick.pl                                                                       Page 2)59.5 792.4 ms
F0 sf
(  })59.5 772.4 ms
(\);)59.5 762.4 ms
(shell_coordinates_gen\( {)59.5 742.4 ms
(    radius => $radius + $ligand_size,)59.5 732.4 ms
(    height => $height,)59.5 722.4 ms
(    separation => $separation_shell,)59.5 712.4 ms
(    center => $center{right},)59.5 702.4 ms
(    points => $num_rand_shell,)59.5 692.4 ms
(    shell => $shell_right,)59.5 682.4 ms
(  })59.5 672.4 ms
(\);)59.5 662.4 ms
(cylinder_coordinates_gen\( {)59.5 642.4 ms
(    grid_size => $grid_size,)59.5 632.4 ms
(    radius => $radius,)59.5 622.4 ms
(    height => $height,)59.5 612.4 ms
(    separation => $separation,)59.5 602.4 ms
(    center => $center{left},)59.5 592.4 ms
(    cylinder => $cylinder_left,)59.5 582.4 ms
(  })59.5 572.4 ms
(\);)59.5 562.4 ms
(cylinder_coordinates_gen\( {)59.5 542.4 ms
(    grid_size => $grid_size,)59.5 532.4 ms
(    radius => $radius,)59.5 522.4 ms
(    height => $height,)59.5 512.4 ms
(    separation => $separation,)59.5 502.4 ms
(    center => $center{right},)59.5 492.4 ms
(    cylinder => $cylinder_right,)59.5 482.4 ms
(  })59.5 472.4 ms
(\);)59.5 462.4 ms
(write_to_file\({array=>$shell_left,file=>"shell_left.txt"}\);)59.5 442.4 ms
(write_to_file\({array=>$shell_right,file=>"shell_right.txt"}\);)59.5 432.4 ms
(write_to_file\({array=>$cylinder_left,file=>"cylinder_left.txt"}\);)59.5 422.4 ms
(write_to_file\({array=>$cylinder_right,file=>"cylinder_right.txt"}\);)59.5 412.4 ms
(# charge part...)59.5 392.4 ms
(# electric constants...)59.5 372.4 ms
(my $epsilon0 = 8.85e-21;   # F nm^-1...)59.5 362.4 ms
(my %epsilon = \(            # dielectric constant...)59.5 352.4 ms
(  in  => 60,               # unit.? )59.5 342.4 ms
(  out => 80,)59.5 332.4 ms
(\);)59.5 322.4 ms
(my $pts_per_cylinder = scalar @{ $cylinder_left };)59.5 312.4 ms
(my %sigmas = \(                       # charges for each point...)59.5 302.4 ms
(# in  => -2e-14 / $num_rand_shell, )59.5 292.4 ms
(  in  => 3*11*12*1.6e-19 / $num_rand_shell, )59.5 282.4 ms
(  out => 0,)59.5 272.4 ms
(\);)59.5 262.4 ms
(my $sigma = $sigmas{$experiment};    )59.5 252.4 ms
(my $joule2eV = 6.242e18;   # conversion between joule to eV...)59.5 242.4 ms
(my %epss = \(               # the constant part of electrostatic...)59.5 232.4 ms
(  in  => \(4*pi*$epsilon0\)**\(-1\) * $sigma**2 * \($epsilon{$experiment}\)**\(-1\),)59.5 222.4 ms
(  out => \(4*pi*$epsilon0\)**\(-1\) * $sigma**2 * \($epsilon{out}\)**\(-1\),)59.5 212.4 ms
(\);)59.5 202.4 ms
(my $eps = $epss{$experiment};)59.5 192.4 ms
(#~~~~~~~~~~~~~~~~~~~~~~~~~~~~~~~~~~~~~~~~~~~~~~)59.5 172.4 ms
(# Compute interactions between two cylinders...)59.5 162.4 ms
(#~~~~~~~~~~~~~~~~~~~~~~~~~~~~~~~~~~~~~~~~~~~~~~)59.5 152.4 ms
(# set up two cylinders...)59.5 132.4 ms
(my @cylinder_1 = @{ $cylinder_left };)59.5 122.4 ms
(my @cylinder_2 = @{ $cylinder_right };)59.5 112.4 ms
(my @shell_1 = @{ $shell_left };)59.5 102.4 ms
(my @shell_2 = @{ $shell_right };)59.5 92.4 ms
(#--------)59.5 72.4 ms
(# compute)59.5 62.4 ms
(#--------)59.5 52.4 ms
re sp
%%PageTrailer
%%Page: 3 3
%%BeginPageSetup
sv
0 g
F0 sf
%%EndPageSetup
F1 sf
(Nick.pl                                                                       Page 3)59.5 792.4 ms
F0 sf
(# set up the sampling angle...)59.5 762.4 ms
(my @angles = map {$_*pi/180}    # convert it from degree to radius...)59.5 752.4 ms
(             grep {$_%5==0}     # choose angle by every 5 degree from 0 degree...)59.5 742.4 ms
(             \(-90..90\);           # set up the sampling angle...)59.5 732.4 ms
(# keep track of interaction...)59.5 712.4 ms
(my @interaction_vdw = \(\);)59.5 702.4 ms
(my @interaction_dd = \(\);)59.5 692.4 ms
(my @interaction = \(\);)59.5 682.4 ms
(my $dv = pi*$radius**2*$height/$pts_per_cylinder;)59.5 672.4 ms
(my $index = 0;                   # layer id...)59.5 662.4 ms
(foreach my $angle \(@angles\) {)59.5 642.4 ms
(  # pick up one cylinder...)59.5 622.4 ms
(  @cylinder_2 = @{ $cylinder_right };)59.5 612.4 ms
(  )59.5 602.4 ms
(  # rotate the cylinder...)59.5 592.4 ms
(  foreach my $pt \(@cylinder_2\) {)59.5 582.4 ms
(    $pt = rotate_y\({angle=>$angle,vector=>$pt}\);)59.5 572.4 ms
(  })59.5 562.4 ms
(  # pick up one shell...)59.5 542.4 ms
(  @shell_2 = @{ $shell_right };)59.5 532.4 ms
(  )59.5 522.4 ms
(  # rotate one cylinder...)59.5 512.4 ms
(  foreach my $pt \(@shell_2\) {)59.5 502.4 ms
(    $pt = rotate_y\({angle=>$angle,vector=>$pt}\);)59.5 492.4 ms
(  })59.5 482.4 ms
(  # compute the interaction_vdw...)59.5 462.4 ms
(  $interaction_vdw[$index] = 0;)59.5 452.4 ms
(  foreach my $p1 \(@cylinder_1\) {)59.5 442.4 ms
(    foreach my $p2 \(@cylinder_2\) {)59.5 432.4 ms
(      # interaction_vdw calculated...)59.5 412.4 ms
(      $interaction_vdw[$index] += )59.5 402.4 ms
(        $joule2eV * \()59.5 392.4 ms
(          \(-1\)*pi**\(-2\)*$hmk*vdw\($p1,$p2\)          # vdw interaction_vdw...)59.5 382.4 ms
(        \) * \($dv**2\);)59.5 372.4 ms
(    })59.5 352.4 ms
(  })59.5 342.4 ms
(  # compute the interaction_dd...)59.5 322.4 ms
(  $interaction_dd[$index] = 0;)59.5 312.4 ms
(  foreach my $p1 \(@shell_1\) {)59.5 302.4 ms
(    foreach my $p2 \(@shell_2\) {)59.5 292.4 ms
(      # interaction_dd calculated...)59.5 272.4 ms
(      $interaction_dd[$index] += )59.5 262.4 ms
(        $joule2eV * \()59.5 252.4 ms
(          $eps*dd\($p1,$p2,$idl\)                   # dd interaction_vdw...    )59.5 242.4 ms
(        \);)59.5 232.4 ms
(    })59.5 212.4 ms
(  })59.5 202.4 ms
(  # combine results...)59.5 182.4 ms
(  $interaction[$index] = )59.5 172.4 ms
(    $interaction_vdw[$index] + $interaction_dd[$index];)59.5 162.4 ms
(  say $interaction_vdw[$index]." --> ".$interaction_dd[$index];)59.5 142.4 ms
(  # increment index...)59.5 122.4 ms
(  $index += 1;)59.5 112.4 ms
(})59.5 92.4 ms
(# output the value of interaction...)59.5 72.4 ms
(# open\(my $fh, ">".$file_export\);)59.5 62.4 ms
(# foreach my $L1 \(@interaction\) {)59.5 52.4 ms
re sp
%%PageTrailer
%%Page: 4 4
%%BeginPageSetup
sv
0 g
F0 sf
%%EndPageSetup
F1 sf
(Nick.pl                                                                       Page 4)59.5 792.4 ms
F0 sf
(#     say $fh $L1;)59.5 772.4 ms
(# })59.5 762.4 ms
(# close\($fh\);)59.5 752.4 ms
(write_to_file\({array=>\\@interaction,file=>$file_export}\);)59.5 742.4 ms
(write_to_file\({array=>\\@interaction_vdw,file=>"vdw_".$file_export}\);)59.5 732.4 ms
(write_to_file\({array=>\\@interaction_dd,file=>"ele_".$file_export}\);)59.5 722.4 ms
(# output the value of interaction...)59.5 702.4 ms
(# open\(my $fh2, ">"."vdw_".$file_export\);)59.5 692.4 ms
(# foreach my $L1 \(@interaction_vdw\) {)59.5 682.4 ms
(#     say $fh2 $L1;)59.5 672.4 ms
(# })59.5 662.4 ms
(# close\($fh2\);)59.5 652.4 ms
(# output the value of interaction...)59.5 632.4 ms
(# open\(my $fh3, ">"."ele_".$file_export\);)59.5 622.4 ms
(# foreach my $L1 \(@interaction_dd\) {)59.5 612.4 ms
(#     say $fh3 $L1;)59.5 602.4 ms
(# })59.5 592.4 ms
(# close\($fh3\);)59.5 582.4 ms
(# output the value of interaction...)59.5 562.4 ms
(# open\(my $fh, ">test-shell.txt"\);)59.5 552.4 ms
(# foreach my $L1 \(@{$coordinates}\) {)59.5 542.4 ms
(#       say $fh join ' ', @{$L1};)59.5 532.4 ms
(# })59.5 522.4 ms
(# close\($fh\);)59.5 512.4 ms
(#===========)59.5 482.4 ms
(# subroutine)59.5 472.4 ms
(#===========)59.5 462.4 ms
(sub rotate_y {)59.5 442.4 ms
(  )59.5 432.4 ms
(  my \($input\) = @_;)59.5 422.4 ms
(  my $angle = $input->{angle} // 0.0;)59.5 402.4 ms
(  my $vector = [$input->{vector}] // [[0.0, 0.0, 0.0]];)59.5 392.4 ms
(  my $vector_mat = Math::MatrixReal->new_from_cols\($vector\);)59.5 372.4 ms
(  my $rot_mat = Math::MatrixReal->new_from_rows\()59.5 352.4 ms
(    [)59.5 342.4 ms
(      [cos\($angle\), 0.0, sin\($angle\)],)59.5 332.4 ms
(      [0.0,         1.0, 0.0        ],)59.5 322.4 ms
(      [-sin\($angle\),0.0, cos\($angle\)],)59.5 312.4 ms
(    ])59.5 302.4 ms
(  \);)59.5 292.4 ms
(  my $new_vector_mat = $rot_mat->multiply\($vector_mat\);)59.5 272.4 ms
(  return \(~$new_vector_mat\)->[0]->[0];)59.5 262.4 ms
(})59.5 252.4 ms
(# my $another = Math::MatrixReal)59.5 232.4 ms
(#               ->new_from_rows\($cylinder_left\))59.5 222.4 ms
(#               ->[0];            # get the array reference back...)59.5 212.4 ms
(# )59.5 202.4 ms
(# say Dumper $another;)59.5 192.4 ms
(# dipole dipole interaction...)59.5 172.4 ms
(sub dd {)59.5 162.4 ms
(  my \($p1, $p2, $idl\) = @_;)59.5 152.4 ms
(  )59.5 142.4 ms
(  # set default value to empty array referenece if there's no input coordinates...)59.5 132.4 ms
(  $p1 //= [];   )59.5 122.4 ms
(  $p2 //= [];)59.5 112.4 ms
(  $idl //= 0.0; # inverse debye length...)59.5 102.4 ms
(  return exp\(-1*$idl*dist\($p1,$p2\)\) )59.5 82.4 ms
(         * 1.0 )59.5 72.4 ms
(         / dist\($p1,$p2\);)59.5 62.4 ms
(})59.5 52.4 ms
re sp
%%PageTrailer
%%Page: 5 5
%%BeginPageSetup
sv
0 g
F0 sf
%%EndPageSetup
F1 sf
(Nick.pl                                                                       Page 5)59.5 792.4 ms
F0 sf
(# vdw interaction...)59.5 762.4 ms
(sub vdw {)59.5 752.4 ms
(  my \($p1, $p2\) = @_;)59.5 742.4 ms
(  )59.5 732.4 ms
(  # set default value to empty array referenece if there's no input coordinates...)59.5 722.4 ms
(  $p1 //= [];   )59.5 712.4 ms
(  $p2 //= [];)59.5 702.4 ms
(  return dist\($p1,$p2\)**\(-6\);)59.5 682.4 ms
(})59.5 672.4 ms
(sub dist {)59.5 652.4 ms
(  my \($p1, $p2\) = @_;)59.5 642.4 ms
(  )59.5 632.4 ms
(  # set default value to empty array referenece if there's no input coordinates...)59.5 622.4 ms
(  $p1 //= [];   )59.5 612.4 ms
(  $p2 //= [];)59.5 602.4 ms
(  return )59.5 582.4 ms
(    sqrt )59.5 572.4 ms
(    sum)59.5 562.4 ms
(    pairwise { \($a-$b\)**2 } @{$p1}, @{$p2};)59.5 552.4 ms
(})59.5 542.4 ms
(sub cylinder_coordinates_gen {)59.5 522.4 ms
(  # set up the input...)59.5 502.4 ms
(  my \($input\) = @_;     # input with hash...)59.5 492.4 ms
(  # parameter setup...)59.5 472.4 ms
(  my $d = $input->{grid_size}   // 1.4;       # the grid_size between points...)59.5 462.4 ms
(  my $R = $input->{radius}     // 17.0/2.0;)59.5 452.4 ms
(  my $H = $input->{height}     // 22.0;)59.5 442.4 ms
(  my $s = $input->{separation} // 8.8;       # separation between two rods...)59.5 432.4 ms
(  my $C = $input->{center}     // [0.0, -1*$s/2.0-$R ,0.0];)59.5 422.4 ms
(  my @rectangle = \(\);  # coordinates of rectangle grid...)59.5 412.4 ms
(  # figure out properties of cylinders...)59.5 392.4 ms
(  my $n = floor\(2*$R/$d\); # max number of points along radius... )59.5 382.4 ms
(  my $m = floor\($H/$d\); # number of layers... )59.5 372.4 ms
(  # need an array to store coordinates for all )59.5 352.4 ms
(  # candidate coordinates horizontally...)59.5 342.4 ms
(  my @coordinates = \(\);)59.5 332.4 ms
(  # at least this many number of points are needed...)59.5 312.4 ms
(  foreach my $index \(0..$n\) {  )59.5 302.4 ms
(    push @coordinates, \(-$n/2+$index\)*$d;)59.5 292.4 ms
(  })59.5 282.4 ms
(  # coordinates vertically...)59.5 262.4 ms
(  my @heights = \(\);)59.5 252.4 ms
(  foreach my $index \(0..$m\) {)59.5 242.4 ms
(    push @heights, \(-$m/2+$index\)*$d;)59.5 232.4 ms
(  })59.5 222.4 ms
(  # say Dumper $C;)59.5 202.4 ms
(  # pick up coordinates from @coordinates )59.5 182.4 ms
(  # and form array rectangle...)59.5 172.4 ms
(  foreach my $height \(@heights\) {)59.5 162.4 ms
(    foreach my $row \(@coordinates\) {)59.5 152.4 ms
(      push @rectangle, [           # each array reference here represents)59.5 142.4 ms
(                                   # coordinate of a point...)59.5 132.4 ms
(        map {)59.5 122.4 ms
(          $_**2 + $row**2 < $R**2 ?   # filter those which are not in the circle...)59.5 112.4 ms
(          [)59.5 92.4 ms
(            pairwise {$a+$b}       # pairwise addition from two arrays below...)59.5 82.4 ms
(            @{[$_,$row,$height]},  # dereference version:sandwich version of array..)59.5 72.4 ms
(.)59.5 62.4 ms
(            @{$C})59.5 52.4 ms
re sp
%%PageTrailer
%%Page: 6 6
%%BeginPageSetup
sv
0 g
F0 sf
%%EndPageSetup
F1 sf
(Nick.pl                                                                       Page 6)59.5 792.4 ms
F0 sf
(          ]        :)59.5 772.4 ms
(          [ ]                      # otherwise, return an empty array reference...)59.5 752.4 ms
(        } )59.5 742.4 ms
(        @coordinates)59.5 732.4 ms
(      ];)59.5 712.4 ms
(    })59.5 702.4 ms
(  })59.5 692.4 ms
(  # print information about system for analysis...)59.5 672.4 ms
(# say "Number of layers => ", $m+1;)59.5 662.4 ms
(  push @{ $input->{cylinder} }, )59.5 642.4 ms
(       grep { scalar @{ $_ } > 0 } # remove empty list...)59.5 632.4 ms
(       flat @rectangle;)59.5 622.4 ms
(  return 0;)59.5 602.4 ms
(})59.5 592.4 ms
(sub shell_coordinates_gen {)59.5 572.4 ms
(  # set up input...)59.5 552.4 ms
(  my \($input\) = @_;)59.5 542.4 ms
(  # parameter setup...)59.5 522.4 ms
(  my $R = $input->{radius}     // 17.0/2.0;)59.5 512.4 ms
(  my $H = $input->{height}     // 22.0;)59.5 502.4 ms
(  my $s = $input->{separation} // 8.8;                        # separation between t)59.5 492.4 ms
(wo rods...)59.5 482.4 ms
(  my $C = $input->{center}     // [0.0, -1*$s/2.0-$R ,0.0];)59.5 472.4 ms
(  my $N = $input->{points}     // 100;)59.5 462.4 ms
(  my @rectangle = \(\);  # coordinates of rectangle grid...)59.5 452.4 ms
(  # need an array to store coordinates for all )59.5 432.4 ms
(  my @coordinates = \(\);)59.5 422.4 ms
(  my $angle = 0;)59.5 412.4 ms
(  foreach my $id \(0..$N-1\) {)59.5 392.4 ms
(    $angle = rand\(1\)*2*pi;)59.5 382.4 ms
(    push @coordinates, [)59.5 372.4 ms
(      pairwise {$a+$b} )59.5 362.4 ms
(        @{[)59.5 352.4 ms
(          $R * cos\($angle\),)59.5 342.4 ms
(          $R * sin\($angle\),)59.5 332.4 ms
(          $H*rand\(1\) - $H/2, )59.5 322.4 ms
(        ]},)59.5 312.4 ms
(        @{$C})59.5 302.4 ms
(    ];)59.5 292.4 ms
(  })59.5 282.4 ms
(  # output...)59.5 262.4 ms
(  push @{ $input->{shell} }, @coordinates;)59.5 252.4 ms
(  return 0;)59.5 232.4 ms
(})59.5 222.4 ms
(sub write_to_file {)59.5 202.4 ms
(  )59.5 192.4 ms
(    my \($input\) = @_;)59.5 182.4 ms
(    my $array_rf   = $input->{array};         # input array...)59.5 162.4 ms
(    my $write_file = $input->{file};          # file to write... )59.5 152.4 ms
(    open \(my $write_fh, ">".$write_file\);)59.5 132.4 ms
(    my $current_data = undef;)59.5 112.4 ms
(    foreach my $current_item \(@{$array_rf}\) {)59.5 102.4 ms
(        )59.5 92.4 ms
(        $current_data = is_arrayref\($current_item\)?)59.5 82.4 ms
(                        join " ", @{$current_item} :)59.5 72.4 ms
(                        $current_item;)59.5 62.4 ms
re sp
%%PageTrailer
%%Page: 7 7
%%BeginPageSetup
sv
0 g
F0 sf
%%EndPageSetup
F1 sf
(Nick.pl                                                                       Page 7)59.5 792.4 ms
F0 sf
(        # if it is a reference...)59.5 772.4 ms
(        print $write_fh $current_data."\\n";)59.5 762.4 ms
(    })59.5 742.4 ms
(    close\($write_fh\))59.5 722.4 ms
(})59.5 702.4 ms
re sp
%%PageTrailer
%%Trailer
%%Pages: 7
%%EOF
